{
  "for-direction": 0,
  "getter-return": 0,
  "no-async-promise-executor": 2,
  "no-await-in-loop": 0,
  "no-compare-neg-zero": 1,
  "no-cond-assign": 2,
  "no-console": 1,
  "no-constant-condition": 2,
  "no-control-regex": 0,
  "no-debugger": 2,
  "no-dupe-args": 2,
  "no-dupe-else-if": 2,
  "no-dupe-keys": 2,
  "no-duplicate-case": 2,
  "no-empty": [2, { "allowEmptyCatch": true }],
  "no-empty-character-class": 2,
  "no-ex-assign": 2,
  "no-extra-boolean-cast": 2,
  "no-extra-parens": 0,
  "no-extra-semi": 2,
  "no-func-assign": 2,
  "no-import-assign": 2,
  "no-inner-declarations": 2,
  "no-invalid-regexp": 2,
  "no-irregular-whitespace": 2,
  "no-misleading-character-class": 2,
  "no-obj-calls": 2,
  "no-prototype-builtins": 2,
  "no-regex-spaces": 1,
  "no-setter-return": 2,
  "no-sparse-arrays": 2,
  "no-template-curly-in-string": 2,
  "no-unexpected-multiline": 2,
  "no-unreachable": 2,
  "no-unsafe-finally": 2,
  "no-unsafe-negation": 2,
  "require-atomic-updates": 2,
  "use-isnan": 2,
  "valid-typeof": 2
}
